…
We have already learned how to visualize data using `Base R`. In this (and the following) module(s) we are going to learn how to do it using `ggplot2` package. R has several systems for making graphs, but `ggplot2` is one of the most elegant and most versatile. `ggplot2` implements the grammar of graphics, a coherent system for describing and building graphs. With `ggplot2`, you can do more faster by learning one system and applying it in many places.


We will use `mpg` dataset to illustrate functionality of the `ggplot2` package. It contains a subset of the fuel economy data that the EPA makes available. It contains only models which had a new release every year between 1999 and 2008 - this was used as a proxy for the popularity of the car.



```r

print(mpg)
#> # A tibble: 234 × 11
#>    manufac…¹ model displ  year cyl   trans drv     cty   hwy
#>    <chr>     <chr> <dbl> <int> <fct> <chr> <chr> <int> <int>
#>  1 audi      a4      1.8  1999 4     auto… f        18    29
#>  2 audi      a4      1.8  1999 4     manu… f        21    29
#>  3 audi      a4      2    2008 4     manu… f        20    31
#>  4 audi      a4      2    2008 4     auto… f        21    30
#>  5 audi      a4      2.8  1999 6     auto… f        16    26
#>  6 audi      a4      2.8  1999 6     manu… f        18    26
#>  7 audi      a4      3.1  2008 6     auto… f        18    27
#>  8 audi      a4 q…   1.8  1999 4     manu… 4        18    26
#>  9 audi      a4 q…   1.8  1999 4     auto… 4        16    25
#> 10 audi      a4 q…   2    2008 4     manu… 4        20    28
#> # … with 224 more rows, 2 more variables: fl <chr>,
#> #   class <chr>, and abbreviated variable name
#> #   ¹​manufacturer
```
…
