…
### Let's Practice {-}

Here are some datasets to practice tidyr functions with. In addition, below you can find some examples of how these function can be utilized. Try to understand what these function are doing. The datasets are available on Courseworks (`Module_07_data` file).


#### Relationship between Income and Religion in the US {-}


```r

relig_income %>% 
  
  pivot_longer(-religion, names_to = "income", values_to = "frequency")
#> # A tibble: 180 × 3
#>    religion income             frequency
#>    <chr>    <chr>                  <dbl>
#>  1 Agnostic <$10k                     27
#>  2 Agnostic $10-20k                   34
#>  3 Agnostic $20-30k                   60
#>  4 Agnostic $30-40k                   81
#>  5 Agnostic $40-50k                   76
#>  6 Agnostic $50-75k                  137
#>  7 Agnostic $75-100k                 122
#>  8 Agnostic $100-150k                109
#>  9 Agnostic >150k                     84
#> 10 Agnostic Don't know/refused        96
#> # … with 170 more rows
```
…
who1 <- who %>%
  
    pivot_longer(
    
    cols = new_sp_m014:newrel_f65,
    
    names_to = "key",
    
    values_to = "cases", 
    
    values_drop_na = TRUE)

print(who1)
#> # A tibble: 76,046 × 6
#>    country     iso2  iso3   year key          cases
#>    <chr>       <chr> <chr> <int> <chr>        <int>
#>  1 Afghanistan AF    AFG    1997 new_sp_m014      0
#>  2 Afghanistan AF    AFG    1997 new_sp_m1524    10
#>  3 Afghanistan AF    AFG    1997 new_sp_m2534     6
#>  4 Afghanistan AF    AFG    1997 new_sp_m3544     3
#>  5 Afghanistan AF    AFG    1997 new_sp_m4554     5
#>  6 Afghanistan AF    AFG    1997 new_sp_m5564     2
#>  7 Afghanistan AF    AFG    1997 new_sp_m65       0
#>  8 Afghanistan AF    AFG    1997 new_sp_f014      5
#>  9 Afghanistan AF    AFG    1997 new_sp_f1524    38
#> 10 Afghanistan AF    AFG    1997 new_sp_f2534    36
#> # … with 76,036 more rows
```
…
who2 <- who1 %>% 
  
  mutate(key = stringr::str_replace(key, "newrel", "new_rel"))
```



```r

who3 <- who2 %>% 
  
  separate(key, c("new", "type", "sexage"), sep = "_")

print(who3)
#> # A tibble: 76,046 × 8
#>    country     iso2  iso3   year new   type  sexage cases
#>    <chr>       <chr> <chr> <int> <chr> <chr> <chr>  <int>
#>  1 Afghanistan AF    AFG    1997 new   sp    m014       0
#>  2 Afghanistan AF    AFG    1997 new   sp    m1524     10
#>  3 Afghanistan AF    AFG    1997 new   sp    m2534      6
#>  4 Afghanistan AF    AFG    1997 new   sp    m3544      3
#>  5 Afghanistan AF    AFG    1997 new   sp    m4554      5
#>  6 Afghanistan AF    AFG    1997 new   sp    m5564      2
#>  7 Afghanistan AF    AFG    1997 new   sp    m65        0
#>  8 Afghanistan AF    AFG    1997 new   sp    f014       5
#>  9 Afghanistan AF    AFG    1997 new   sp    f1524     38
#> 10 Afghanistan AF    AFG    1997 new   sp    f2534     36
#> # … with 76,036 more rows
```


```r

who4 <- who3 %>%
  
  separate(sexage, c("sex", "age"), sep = 1)

print(who4)
#> # A tibble: 76,046 × 9
#>    country   iso2  iso3   year new   type  sex   age   cases
#>    <chr>     <chr> <chr> <int> <chr> <chr> <chr> <chr> <int>
#>  1 Afghanis… AF    AFG    1997 new   sp    m     014       0
#>  2 Afghanis… AF    AFG    1997 new   sp    m     1524     10
#>  3 Afghanis… AF    AFG    1997 new   sp    m     2534      6
#>  4 Afghanis… AF    AFG    1997 new   sp    m     3544      3
#>  5 Afghanis… AF    AFG    1997 new   sp    m     4554      5
#>  6 Afghanis… AF    AFG    1997 new   sp    m     5564      2
#>  7 Afghanis… AF    AFG    1997 new   sp    m     65        0
#>  8 Afghanis… AF    AFG    1997 new   sp    f     014       5
#>  9 Afghanis… AF    AFG    1997 new   sp    f     1524     38
#> 10 Afghanis… AF    AFG    1997 new   sp    f     2534     36
#> # … with 76,036 more rows
```
…
billboard2 <- billboard %>% 
  
  pivot_longer(
    
    cols = starts_with("wk"), 
    
    names_to = "week",
    
    values_to = "rank", 
    
    values_drop_na = TRUE)

print(billboard2)
#> # A tibble: 5,307 × 5
#>    artist  track                   date.entered week   rank
#>    <chr>   <chr>                   <date>       <chr> <dbl>
#>  1 2 Pac   Baby Don't Cry (Keep... 2000-02-26   wk1      87
#>  2 2 Pac   Baby Don't Cry (Keep... 2000-02-26   wk2      82
#>  3 2 Pac   Baby Don't Cry (Keep... 2000-02-26   wk3      72
#>  4 2 Pac   Baby Don't Cry (Keep... 2000-02-26   wk4      77
#>  5 2 Pac   Baby Don't Cry (Keep... 2000-02-26   wk5      87
#>  6 2 Pac   Baby Don't Cry (Keep... 2000-02-26   wk6      94
#>  7 2 Pac   Baby Don't Cry (Keep... 2000-02-26   wk7      99
#>  8 2Ge+her The Hardest Part Of ... 2000-09-02   wk1      91
#>  9 2Ge+her The Hardest Part Of ... 2000-09-02   wk2      87
#> 10 2Ge+her The Hardest Part Of ... 2000-09-02   wk3      92
#> # … with 5,297 more rows
```
…
    cols = starts_with("wk"), 
    
    names_to = "week",
    
    names_prefix = "wk",
    
    names_transform = as.integer,
    
    values_to = "rank", 
    
    values_drop_na = TRUE)


print(billboard3)
#> # A tibble: 5,307 × 5
#>    artist  track                   date.entered  week  rank
#>    <chr>   <chr>                   <date>       <int> <dbl>
#>  1 2 Pac   Baby Don't Cry (Keep... 2000-02-26       1    87
#>  2 2 Pac   Baby Don't Cry (Keep... 2000-02-26       2    82
#>  3 2 Pac   Baby Don't Cry (Keep... 2000-02-26       3    72
#>  4 2 Pac   Baby Don't Cry (Keep... 2000-02-26       4    77
#>  5 2 Pac   Baby Don't Cry (Keep... 2000-02-26       5    87
#>  6 2 Pac   Baby Don't Cry (Keep... 2000-02-26       6    94
#>  7 2 Pac   Baby Don't Cry (Keep... 2000-02-26       7    99
#>  8 2Ge+her The Hardest Part Of ... 2000-09-02       1    91
#>  9 2Ge+her The Hardest Part Of ... 2000-09-02       2    87
#> 10 2Ge+her The Hardest Part Of ... 2000-09-02       3    92
#> # … with 5,297 more rows
```



```r

billboard3 %>%
  
  arrange(artist, track, week)
#> # A tibble: 5,307 × 5
#>    artist  track                   date.entered  week  rank
#>    <chr>   <chr>                   <date>       <int> <dbl>
#>  1 2 Pac   Baby Don't Cry (Keep... 2000-02-26       1    87
#>  2 2 Pac   Baby Don't Cry (Keep... 2000-02-26       2    82
#>  3 2 Pac   Baby Don't Cry (Keep... 2000-02-26       3    72
#>  4 2 Pac   Baby Don't Cry (Keep... 2000-02-26       4    77
#>  5 2 Pac   Baby Don't Cry (Keep... 2000-02-26       5    87
#>  6 2 Pac   Baby Don't Cry (Keep... 2000-02-26       6    94
#>  7 2 Pac   Baby Don't Cry (Keep... 2000-02-26       7    99
#>  8 2Ge+her The Hardest Part Of ... 2000-09-02       1    91
#>  9 2Ge+her The Hardest Part Of ... 2000-09-02       2    87
#> 10 2Ge+her The Hardest Part Of ... 2000-09-02       3    92
#> # … with 5,297 more rows
```
