Module 9 | Summer R Bootcamp
…
        Summer R Bootcamp

      Show table of contents

Module 9

ggplot2 Package

We have already learned how to visualize data using Base R. In this (and the following) module(s) we are going to learn how to do it using ggplot2 package. R has several systems for making graphs, but ggplot2 is one of the most elegant and most versatile. ggplot2 implements the grammar of graphics, a coherent system for describing and building graphs. With ggplot2, you can do more faster by learning one system and applying it in many places.

We will use mpg dataset to illustrate functionality of the ggplot2 package. It contains a subset of the fuel economy data that the EPA makes available. It contains only models which had a new release every year between 1999 and 2008 - this was used as a proxy for the popularity of the car.

print(mpg)
#> # A tibble: 234 × 11
#>    manufacturer model    displ  year cyl   trans drv     cty
#>    <chr>        <chr>    <dbl> <int> <fct> <chr> <chr> <int>
#>  1 audi         a4         1.8  1999 4     auto… f        18
#>  2 audi         a4         1.8  1999 4     manu… f        21
#>  3 audi         a4         2    2008 4     manu… f        20
#>  4 audi         a4         2    2008 4     auto… f        21
#>  5 audi         a4         2.8  1999 6     auto… f        16
#>  6 audi         a4         2.8  1999 6     manu… f        18
#>  7 audi         a4         3.1  2008 6     auto… f        18
#>  8 audi         a4 quat…   1.8  1999 4     manu… 4        18
#>  9 audi         a4 quat…   1.8  1999 4     auto… 4        16
#> 10 audi         a4 quat…   2    2008 4     manu… 4        20
#> # ℹ 224 more rows
#> # ℹ 3 more variables: hwy <int>, fl <chr>, class <chr>
…
