…
  * `group_by()` - changes the scope of each function from operating on the entire data set to operating on it group-by-group
  * `summarize()` - collapses a group into a single row
  


### filter() Function {-}

`filter()` allows you to subset observations based on their values. The first argument is the name of the data frame, the second and subsequent arguments are the expressions that filter the data frame. For instance, let's select all flights on January 1st:



```r

filter(flights, month == 1, day == 1)
#> # A tibble: 842 × 19
#>     year month   day dep_t…¹ sched…² dep_d…³ arr_t…⁴ sched…⁵
#>    <int> <int> <int>   <int>   <int>   <int>   <int>   <int>
#>  1  2013     1     1     517     515       2     830     819
#>  2  2013     1     1     533     529       4     850     830
#>  3  2013     1     1     542     540       2     923     850
#>  4  2013     1     1     544     545      -1    1004    1022
#>  5  2013     1     1     554     600      -6     812     837
#>  6  2013     1     1     554     558      -4     740     728
#>  7  2013     1     1     555     600      -5     913     854
#>  8  2013     1     1     557     600      -3     709     723
#>  9  2013     1     1     557     600      -3     838     846
#> 10  2013     1     1     558     600      -2     753     745
#> # … with 832 more rows, 11 more variables: arr_delay <int>,
#> #   carrier <chr>, flight <int>, tailnum <chr>,
#> #   origin <chr>, dest <chr>, air_time <int>,
#> #   distance <int>, hour <int>, minute <int>,
#> #   time_hour <chr>, and abbreviated variable names
#> #   ¹​dep_time, ²​sched_dep_time, ³​dep_delay, ⁴​arr_time,
#> #   ⁵​sched_arr_time
```
…
```r

jan1 <- filter(flights, month == 1, day == 1)
```


Let's find all flights that departed in November or December:


```r

filter(flights, month == 11 | month == 12)
#> # A tibble: 55,403 × 19
#>     year month   day dep_t…¹ sched…² dep_d…³ arr_t…⁴ sched…⁵
#>    <int> <int> <int>   <int>   <int>   <int>   <int>   <int>
#>  1  2013    11     1       5    2359       6     352     345
#>  2  2013    11     1      35    2250     105     123    2356
#>  3  2013    11     1     455     500      -5     641     651
#>  4  2013    11     1     539     545      -6     856     827
#>  5  2013    11     1     542     545      -3     831     855
#>  6  2013    11     1     549     600     -11     912     923
#>  7  2013    11     1     550     600     -10     705     659
#>  8  2013    11     1     554     600      -6     659     701
#>  9  2013    11     1     554     600      -6     826     827
#> 10  2013    11     1     554     600      -6     749     751
#> # … with 55,393 more rows, 11 more variables:
#> #   arr_delay <int>, carrier <chr>, flight <int>,
#> #   tailnum <chr>, origin <chr>, dest <chr>,
#> #   air_time <int>, distance <int>, hour <int>,
#> #   minute <int>, time_hour <chr>, and abbreviated variable
#> #   names ¹​dep_time, ²​sched_dep_time, ³​dep_delay,
#> #   ⁴​arr_time, ⁵​sched_arr_time
```

We could do the same operation using the `%in%` operator:


```r

filter(flights, month %in% c(11, 12))
#> # A tibble: 55,403 × 19
#>     year month   day dep_t…¹ sched…² dep_d…³ arr_t…⁴ sched…⁵
#>    <int> <int> <int>   <int>   <int>   <int>   <int>   <int>
#>  1  2013    11     1       5    2359       6     352     345
#>  2  2013    11     1      35    2250     105     123    2356
#>  3  2013    11     1     455     500      -5     641     651
#>  4  2013    11     1     539     545      -6     856     827
#>  5  2013    11     1     542     545      -3     831     855
#>  6  2013    11     1     549     600     -11     912     923
#>  7  2013    11     1     550     600     -10     705     659
#>  8  2013    11     1     554     600      -6     659     701
#>  9  2013    11     1     554     600      -6     826     827
#> 10  2013    11     1     554     600      -6     749     751
#> # … with 55,393 more rows, 11 more variables:
#> #   arr_delay <int>, carrier <chr>, flight <int>,
#> #   tailnum <chr>, origin <chr>, dest <chr>,
#> #   air_time <int>, distance <int>, hour <int>,
#> #   minute <int>, time_hour <chr>, and abbreviated variable
#> #   names ¹​dep_time, ²​sched_dep_time, ³​dep_delay,
#> #   ⁴​arr_time, ⁵​sched_arr_time
```
…
Let's select all rows except the first four (this option can be used to drop some observations from a data set):


```r

slice(flights, -(1:4))
#> # A tibble: 336,772 × 19
#>     year month   day dep_t…¹ sched…² dep_d…³ arr_t…⁴ sched…⁵
#>    <int> <int> <int>   <int>   <int>   <int>   <int>   <int>
#>  1  2013     1     1     554     600      -6     812     837
#>  2  2013     1     1     554     558      -4     740     728
#>  3  2013     1     1     555     600      -5     913     854
#>  4  2013     1     1     557     600      -3     709     723
#>  5  2013     1     1     557     600      -3     838     846
#>  6  2013     1     1     558     600      -2     753     745
#>  7  2013     1     1     558     600      -2     849     851
#>  8  2013     1     1     558     600      -2     853     856
#>  9  2013     1     1     558     600      -2     924     917
#> 10  2013     1     1     558     600      -2     923     937
#> # … with 336,762 more rows, 11 more variables:
#> #   arr_delay <int>, carrier <chr>, flight <int>,
#> #   tailnum <chr>, origin <chr>, dest <chr>,
#> #   air_time <int>, distance <int>, hour <int>,
#> #   minute <int>, time_hour <chr>, and abbreviated variable
#> #   names ¹​dep_time, ²​sched_dep_time, ³​dep_delay,
#> #   ⁴​arr_time, ⁵​sched_arr_time
```
…
```r

slice_sample(flights, prop = 0.001)
#> # A tibble: 336 × 19
#>     year month   day dep_t…¹ sched…² dep_d…³ arr_t…⁴ sched…⁵
#>    <int> <int> <int>   <int>   <int>   <int>   <int>   <int>
#>  1  2013     8    15    1526    1450      36    1802    1719
#>  2  2013     3    19    1550    1515      35    1726    1700
#>  3  2013     9    30    1702    1710      -8    1954    2033
#>  4  2013     4    29     720     723      -3     829     847
#>  5  2013     7    15    1149    1155      -6    1256    1323
#>  6  2013     5     9     653     655      -2     756     820
#>  7  2013     5    14     847     811      36    1009     921
#>  8  2013     7    26     758     800      -2    1043    1104
#>  9  2013     4     5    1255    1259      -4    1416    1420
#> 10  2013     1    17    1825    1745      40    2127    2042
#> # … with 326 more rows, 11 more variables: arr_delay <int>,
#> #   carrier <chr>, flight <int>, tailnum <chr>,
#> #   origin <chr>, dest <chr>, air_time <int>,
#> #   distance <int>, hour <int>, minute <int>,
#> #   time_hour <chr>, and abbreviated variable names
#> #   ¹​dep_time, ²​sched_dep_time, ³​dep_delay, ⁴​arr_time,
#> #   ⁵​sched_arr_time
```

Use `replace = TRUE` to take a sample with replacement. 


### arrange() Function {-}

The `arrange()` function is used to change the order of rows in a data set. It takes a data frame and a set of column names (or more complicated expressions) to order by. If you provide more than one column name, each additional column will be used to break ties in the values of preceding columns:


```r

arrange(flights, year, month, day)
#> # A tibble: 336,776 × 19
#>     year month   day dep_t…¹ sched…² dep_d…³ arr_t…⁴ sched…⁵
#>    <int> <int> <int>   <int>   <int>   <int>   <int>   <int>
#>  1  2013     1     1     517     515       2     830     819
#>  2  2013     1     1     533     529       4     850     830
#>  3  2013     1     1     542     540       2     923     850
#>  4  2013     1     1     544     545      -1    1004    1022
#>  5  2013     1     1     554     600      -6     812     837
#>  6  2013     1     1     554     558      -4     740     728
#>  7  2013     1     1     555     600      -5     913     854
#>  8  2013     1     1     557     600      -3     709     723
#>  9  2013     1     1     557     600      -3     838     846
#> 10  2013     1     1     558     600      -2     753     745
#> # … with 336,766 more rows, 11 more variables:
#> #   arr_delay <int>, carrier <chr>, flight <int>,
#> #   tailnum <chr>, origin <chr>, dest <chr>,
#> #   air_time <int>, distance <int>, hour <int>,
#> #   minute <int>, time_hour <chr>, and abbreviated variable
#> #   names ¹​dep_time, ²​sched_dep_time, ³​dep_delay,
#> #   ⁴​arr_time, ⁵​sched_arr_time
```

Use `desc()` to re-order by a column in descending order:


```r

arrange(flights, desc(dep_delay))
#> # A tibble: 336,776 × 19
#>     year month   day dep_t…¹ sched…² dep_d…³ arr_t…⁴ sched…⁵
#>    <int> <int> <int>   <int>   <int>   <int>   <int>   <int>
#>  1  2013     1     9     641     900    1301    1242    1530
#>  2  2013     6    15    1432    1935    1137    1607    2120
#>  3  2013     1    10    1121    1635    1126    1239    1810
#>  4  2013     9    20    1139    1845    1014    1457    2210
#>  5  2013     7    22     845    1600    1005    1044    1815
#>  6  2013     4    10    1100    1900     960    1342    2211
#>  7  2013     3    17    2321     810     911     135    1020
#>  8  2013     6    27     959    1900     899    1236    2226
#>  9  2013     7    22    2257     759     898     121    1026
#> 10  2013    12     5     756    1700     896    1058    2020
#> # … with 336,766 more rows, 11 more variables:
#> #   arr_delay <int>, carrier <chr>, flight <int>,
#> #   tailnum <chr>, origin <chr>, dest <chr>,
#> #   air_time <int>, distance <int>, hour <int>,
#> #   minute <int>, time_hour <chr>, and abbreviated variable
#> #   names ¹​dep_time, ²​sched_dep_time, ³​dep_delay,
#> #   ⁴​arr_time, ⁵​sched_arr_time
```



### select() Function {-}

Often you work with large data sets with many columns but only a few are actually of interest to you. `select()` function allows you to rapidly zoom in on a useful subset. You can select columns by name:


```r

select(flights, year, month, day)
#> # A tibble: 336,776 × 3
#>     year month   day
#>    <int> <int> <int>
#>  1  2013     1     1
#>  2  2013     1     1
#>  3  2013     1     1
#>  4  2013     1     1
#>  5  2013     1     1
#>  6  2013     1     1
#>  7  2013     1     1
#>  8  2013     1     1
#>  9  2013     1     1
#> 10  2013     1     1
#> # … with 336,766 more rows
```

You can select all columns between two variables (inclusive):


```r

select(flights, year:day)
#> # A tibble: 336,776 × 3
#>     year month   day
#>    <int> <int> <int>
#>  1  2013     1     1
#>  2  2013     1     1
#>  3  2013     1     1
#>  4  2013     1     1
#>  5  2013     1     1
#>  6  2013     1     1
#>  7  2013     1     1
#>  8  2013     1     1
#>  9  2013     1     1
#> 10  2013     1     1
#> # … with 336,766 more rows
```

You can select all columns except some:


```r

select(flights, -(year:day))
#> # A tibble: 336,776 × 16
#>    dep_time sched_…¹ dep_d…² arr_t…³ sched…⁴ arr_d…⁵ carrier
#>       <int>    <int>   <int>   <int>   <int>   <int> <chr>  
#>  1      517      515       2     830     819      11 UA     
#>  2      533      529       4     850     830      20 UA     
#>  3      542      540       2     923     850      33 AA     
#>  4      544      545      -1    1004    1022     -18 B6     
#>  5      554      600      -6     812     837     -25 DL     
#>  6      554      558      -4     740     728      12 UA     
#>  7      555      600      -5     913     854      19 B6     
#>  8      557      600      -3     709     723     -14 EV     
#>  9      557      600      -3     838     846      -8 B6     
#> 10      558      600      -2     753     745       8 AA     
#> # … with 336,766 more rows, 9 more variables: flight <int>,
#> #   tailnum <chr>, origin <chr>, dest <chr>,
#> #   air_time <int>, distance <int>, hour <int>,
#> #   minute <int>, time_hour <chr>, and abbreviated variable
#> #   names ¹​sched_dep_time, ²​dep_delay, ³​arr_time,
#> #   ⁴​sched_arr_time, ⁵​arr_delay
```

You can do the same operation with `!` operator:


```r

select(flights, !(year:day))
#> # A tibble: 336,776 × 16
#>    dep_time sched_…¹ dep_d…² arr_t…³ sched…⁴ arr_d…⁵ carrier
#>       <int>    <int>   <int>   <int>   <int>   <int> <chr>  
#>  1      517      515       2     830     819      11 UA     
#>  2      533      529       4     850     830      20 UA     
#>  3      542      540       2     923     850      33 AA     
#>  4      544      545      -1    1004    1022     -18 B6     
#>  5      554      600      -6     812     837     -25 DL     
#>  6      554      558      -4     740     728      12 UA     
#>  7      555      600      -5     913     854      19 B6     
#>  8      557      600      -3     709     723     -14 EV     
#>  9      557      600      -3     838     846      -8 B6     
#> 10      558      600      -2     753     745       8 AA     
#> # … with 336,766 more rows, 9 more variables: flight <int>,
#> #   tailnum <chr>, origin <chr>, dest <chr>,
#> #   air_time <int>, distance <int>, hour <int>,
#> #   minute <int>, time_hour <chr>, and abbreviated variable
#> #   names ¹​sched_dep_time, ²​dep_delay, ³​arr_time,
#> #   ⁴​sched_arr_time, ⁵​arr_delay
```

You can use column indexes for column selection:


```r

select(flights, c(1, 5, 8))
#> # A tibble: 336,776 × 3
#>     year sched_dep_time sched_arr_time
#>    <int>          <int>          <int>
#>  1  2013            515            819
#>  2  2013            529            830
#>  3  2013            540            850
#>  4  2013            545           1022
#>  5  2013            600            837
#>  6  2013            558            728
#>  7  2013            600            854
#>  8  2013            600            723
#>  9  2013            600            846
#> 10  2013            600            745
#> # … with 336,766 more rows
```

There are a number of helper functions you can use within `select()`. For example, `starts_with()`, `ends_with()`, `matches()` and `contains()`. These let you quickly match larger blocks of variables that meet some criterion.

Let's select all columns that start with "sched":


```r

select(flights, starts_with("sched"))
#> # A tibble: 336,776 × 2
#>    sched_dep_time sched_arr_time
#>             <int>          <int>
#>  1            515            819
#>  2            529            830
#>  3            540            850
#>  4            545           1022
#>  5            600            837
#>  6            558            728
#>  7            600            854
#>  8            600            723
#>  9            600            846
#> 10            600            745
#> # … with 336,766 more rows
```

You can select all columns in the data set that end with "time":


```r

select(flights, ends_with("time"))
#> # A tibble: 336,776 × 5
#>    dep_time sched_dep_time arr_time sched_arr_time air_time
#>       <int>          <int>    <int>          <int>    <int>
#>  1      517            515      830            819      227
#>  2      533            529      850            830      227
#>  3      542            540      923            850      160
#>  4      544            545     1004           1022      183
#>  5      554            600      812            837      116
#>  6      554            558      740            728      150
#>  7      555            600      913            854      158
#>  8      557            600      709            723       53
#>  9      557            600      838            846      140
#> 10      558            600      753            745      138
#> # … with 336,766 more rows
```

Or suppose you want to select all columns in the data set that contain "ar":


```r

select(flights, contains("ar"))
#> # A tibble: 336,776 × 5
#>     year arr_time sched_arr_time arr_delay carrier
#>    <int>    <int>          <int>     <int> <chr>  
#>  1  2013      830            819        11 UA     
#>  2  2013      850            830        20 UA     
#>  3  2013      923            850        33 AA     
#>  4  2013     1004           1022       -18 B6     
#>  5  2013      812            837       -25 DL     
#>  6  2013      740            728        12 UA     
#>  7  2013      913            854        19 B6     
#>  8  2013      709            723       -14 EV     
#>  9  2013      838            846        -8 B6     
#> 10  2013      753            745         8 AA     
#> # … with 336,766 more rows
```

You can even combine these arguments:


```r

select(flights, starts_with("sched") & ends_with("time"))
#> # A tibble: 336,776 × 2
#>    sched_dep_time sched_arr_time
#>             <int>          <int>
#>  1            515            819
#>  2            529            830
#>  3            540            850
#>  4            545           1022
#>  5            600            837
#>  6            558            728
#>  7            600            854
#>  8            600            723
#>  9            600            846
#> 10            600            745
#> # … with 336,766 more rows
```


### rename() Function {-}

Use `rename()` function to rename columns in a data frame. Suppose we want to rename the "year" and "month" variables and make them uppercase:


```r

rename(flights, YEAR = year, MONTH = month)
#> # A tibble: 336,776 × 19
#>     YEAR MONTH   day dep_t…¹ sched…² dep_d…³ arr_t…⁴ sched…⁵
#>    <int> <int> <int>   <int>   <int>   <int>   <int>   <int>
#>  1  2013     1     1     517     515       2     830     819
#>  2  2013     1     1     533     529       4     850     830
#>  3  2013     1     1     542     540       2     923     850
#>  4  2013     1     1     544     545      -1    1004    1022
#>  5  2013     1     1     554     600      -6     812     837
#>  6  2013     1     1     554     558      -4     740     728
#>  7  2013     1     1     555     600      -5     913     854
#>  8  2013     1     1     557     600      -3     709     723
#>  9  2013     1     1     557     600      -3     838     846
#> 10  2013     1     1     558     600      -2     753     745
#> # … with 336,766 more rows, 11 more variables:
#> #   arr_delay <int>, carrier <chr>, flight <int>,
#> #   tailnum <chr>, origin <chr>, dest <chr>,
#> #   air_time <int>, distance <int>, hour <int>,
#> #   minute <int>, time_hour <chr>, and abbreviated variable
#> #   names ¹​dep_time, ²​sched_dep_time, ³​dep_delay,
#> #   ⁴​arr_time, ⁵​sched_arr_time
```


### relocate() Function {-}

`relocate()` function allows to change the positions of columns in a data frame. It has two useful arguments `.before` and `.after` that helps precisely select a location for a variable:


```r

relocate(flights, year, .after = month)
#> # A tibble: 336,776 × 19
#>    month  year   day dep_t…¹ sched…² dep_d…³ arr_t…⁴ sched…⁵
#>    <int> <int> <int>   <int>   <int>   <int>   <int>   <int>
#>  1     1  2013     1     517     515       2     830     819
#>  2     1  2013     1     533     529       4     850     830
#>  3     1  2013     1     542     540       2     923     850
#>  4     1  2013     1     544     545      -1    1004    1022
#>  5     1  2013     1     554     600      -6     812     837
#>  6     1  2013     1     554     558      -4     740     728
#>  7     1  2013     1     555     600      -5     913     854
#>  8     1  2013     1     557     600      -3     709     723
#>  9     1  2013     1     557     600      -3     838     846
#> 10     1  2013     1     558     600      -2     753     745
#> # … with 336,766 more rows, 11 more variables:
#> #   arr_delay <int>, carrier <chr>, flight <int>,
#> #   tailnum <chr>, origin <chr>, dest <chr>,
#> #   air_time <int>, distance <int>, hour <int>,
#> #   minute <int>, time_hour <chr>, and abbreviated variable
#> #   names ¹​dep_time, ²​sched_dep_time, ³​dep_delay,
#> #   ⁴​arr_time, ⁵​sched_arr_time
```
…
